<svg width="476" height="476" viewBox="0 0 476 476" fill="none" xmlns="http://www.w3.org/2000/svg">
<g clip-path="url(#clip0)">
<path d="M237.541 328.897C262.669 328.897 284.173 319.951 302.064 302.067C319.952 284.183 328.897 262.668 328.897 237.542V91.365C328.897 66.239 319.959 44.733 302.064 26.84C284.173 8.951 262.669 0 237.541 0C212.416 0 190.909 8.951 173.017 26.84C155.124 44.73 146.179 66.239 146.179 91.365V237.542C146.179 262.667 155.128 284.183 173.017 302.067C190.906 319.951 212.416 328.897 237.541 328.897Z" fill="black"/>
<path d="M396.563 188.15C392.957 184.533 388.665 182.724 383.716 182.724C378.772 182.724 374.49 184.533 370.869 188.15C367.256 191.766 365.448 196.048 365.448 200.995V237.542C365.448 272.756 352.93 302.875 327.9 327.904C302.878 352.934 272.755 365.449 237.54 365.449C202.326 365.449 172.206 352.934 147.175 327.904C122.147 302.882 109.634 272.757 109.634 237.542V200.995C109.634 196.048 107.825 191.766 104.21 188.15C100.593 184.533 96.3149 182.724 91.3629 182.724C86.4109 182.724 82.1279 184.533 78.5129 188.15C74.8949 191.766 73.0869 196.048 73.0869 200.995V237.542C73.0869 279.607 87.1269 316.201 115.199 347.318C143.272 378.436 177.961 396.279 219.267 400.844V438.535H146.178C141.229 438.535 136.947 440.346 133.331 443.963C129.714 447.577 127.905 451.861 127.905 456.81C127.905 461.751 129.714 466.043 133.331 469.657C136.947 473.271 141.229 475.085 146.178 475.085H328.897C333.845 475.085 338.133 473.272 341.744 469.657C345.365 466.044 347.175 461.752 347.175 456.81C347.175 451.862 345.365 447.578 341.744 443.963C338.134 440.346 333.846 438.535 328.897 438.535H255.817V400.844C297.116 396.279 331.802 378.436 359.878 347.318C387.954 316.201 401.998 279.607 401.998 237.542V200.995C401.998 196.049 400.185 191.77 396.563 188.15Z" fill="black"/>
</g>
<mask id="mask0" mask-type="alpha" maskUnits="userSpaceOnUse" x="0" y="0" width="476" height="476">
<g clip-path="url(#clip1)">
<path d="M237.541 328.897C262.669 328.897 284.173 319.951 302.064 302.067C319.952 284.183 328.897 262.668 328.897 237.542V91.365C328.897 66.239 319.959 44.733 302.064 26.84C284.173 8.951 262.669 0 237.541 0C212.416 0 190.909 8.951 173.017 26.84C155.124 44.73 146.179 66.239 146.179 91.365V237.542C146.179 262.667 155.128 284.183 173.017 302.067C190.906 319.951 212.416 328.897 237.541 328.897Z" fill="black"/>
<path d="M396.563 188.15C392.957 184.533 388.665 182.724 383.716 182.724C378.772 182.724 374.49 184.533 370.869 188.15C367.256 191.766 365.448 196.048 365.448 200.995V237.542C365.448 272.756 352.93 302.875 327.9 327.904C302.878 352.934 272.755 365.449 237.54 365.449C202.326 365.449 172.206 352.934 147.175 327.904C122.147 302.882 109.634 272.757 109.634 237.542V200.995C109.634 196.048 107.825 191.766 104.21 188.15C100.593 184.533 96.3149 182.724 91.3629 182.724C86.4109 182.724 82.1279 184.533 78.5129 188.15C74.8949 191.766 73.0869 196.048 73.0869 200.995V237.542C73.0869 279.607 87.1269 316.201 115.199 347.318C143.272 378.436 177.961 396.279 219.267 400.844V438.535H146.178C141.229 438.535 136.947 440.346 133.331 443.963C129.714 447.577 127.905 451.861 127.905 456.81C127.905 461.751 129.714 466.043 133.331 469.657C136.947 473.271 141.229 475.085 146.178 475.085H328.897C333.845 475.085 338.133 473.272 341.744 469.657C345.365 466.044 347.175 461.752 347.175 456.81C347.175 451.862 345.365 447.578 341.744 443.963C338.134 440.346 333.846 438.535 328.897 438.535H255.817V400.844C297.116 396.279 331.802 378.436 359.878 347.318C387.954 316.201 401.998 279.607 401.998 237.542V200.995C401.998 196.049 400.185 191.77 396.563 188.15Z" fill="black"/>
</g>
</mask>
<g mask="url(#mask0)">
<rect x="238" y="529" width="582" height="272" transform="rotate(-90 238 529)" fill="#DE4F22"/>
</g>
<defs>
<clipPath id="clip0">
<rect width="475.085" height="475.085" fill="white"/>
</clipPath>
<clipPath id="clip1">
<rect width="475.085" height="475.085" fill="white"/>
</clipPath>
</defs>
</svg>
