<svg width="384" height="383" viewBox="0 0 384 383" fill="none" xmlns="http://www.w3.org/2000/svg">
<g clip-path="url(#clip0)">
<path d="M135.643 90.5137H158.084V292.486H135.643V90.5137Z" fill="black"/>
<path d="M90.7598 157.838H113.201V292.486H90.7598V157.838Z" fill="black"/>
<path d="M45.877 135.396H68.3184V292.486H45.877V135.396Z" fill="black"/>
<path d="M0.994141 202.721H23.4355V292.486H0.994141V202.721Z" fill="black"/>
<path d="M383.994 225.162C383.994 188.04 353.792 157.838 316.67 157.838C314.768 157.838 312.868 157.917 310.981 158.077C296.867 118.37 257.744 90.5137 214.188 90.5137C205.643 90.5137 197.152 91.5831 188.95 93.6958L180.525 95.864V292.486H316.67C353.792 292.486 383.994 262.284 383.994 225.162ZM202.967 113.75C206.669 113.221 210.421 112.955 214.188 112.955C251.055 112.955 283.829 138.339 292.116 173.313L294.734 184.364C303.632 182.371 308.322 180.279 316.67 180.279C341.42 180.279 361.553 200.412 361.553 225.162C361.553 249.912 341.42 270.045 316.67 270.045H202.967V113.75Z" fill="black"/>
</g>
<defs>
<clipPath id="clip0">
<rect width="383" height="383" fill="white" transform="translate(0.994141)"/>
</clipPath>
</defs>
</svg>
