<svg width="512" height="470" viewBox="0 0 512 470" fill="none" xmlns="http://www.w3.org/2000/svg">
<path d="M117.333 128.333H352C357.896 128.333 362.667 123.562 362.667 117.666C362.667 111.77 357.896 106.999 352 106.999H117.333C111.437 106.999 106.666 111.77 106.666 117.666C106.667 123.563 111.438 128.333 117.333 128.333Z" fill="#DE4F22"/>
<path d="M245.333 235H117.333C111.437 235 106.666 239.771 106.666 245.667C106.666 251.563 111.437 256.334 117.333 256.334H245.333C251.229 256.334 256 251.563 256 245.667C256 239.771 251.229 235 245.333 235Z" fill="#DE4F22"/>
<path d="M471.167 43C470.549 43 469.95 43.155 469.334 43.184V43C469.334 19.469 450.188 0.333008 426.667 0.333008H42.667C19.146 0.333008 0 19.469 0 43V459C0 463.313 2.604 467.208 6.583 468.854C7.896 469.406 9.291 469.667 10.666 469.667C13.437 469.667 16.166 468.584 18.208 466.542L121.75 363H426.667C450.188 363 469.334 343.865 469.334 320.333V143.411L500.042 112.708C500.042 112.708 500.042 112.708 500.042 112.698C507.646 105.094 512 94.573 512 83.833C512 61.313 493.688 43 471.167 43ZM448 320.333C448 332.093 438.437 341.666 426.667 341.666H117.333C114.5 341.666 111.791 342.791 109.791 344.791L21.333 433.25V43C21.333 31.24 30.896 21.667 42.666 21.667H426.666C438.438 21.667 448 31.24 448 43V50.286C445.975 51.678 444.038 53.209 442.292 54.958L326.232 171H117.333C111.437 171 106.666 175.771 106.666 181.667C106.666 187.563 111.437 192.334 117.333 192.334H309.118L298.875 243.574C298.167 247.074 299.271 250.689 301.792 253.209C303.813 255.23 306.542 256.334 309.334 256.334C310.022 256.334 310.73 256.261 311.417 256.126L364.73 245.459C366.813 245.042 368.709 244.032 370.188 242.542L448 164.742V320.333ZM357.396 225.177L322.938 232.073L329.834 197.573L426.662 100.745L454.249 128.332L357.396 225.177ZM484.958 97.625L469.333 113.25L441.744 85.661L457.374 70.031C460.999 66.416 466.02 64.333 471.166 64.333C481.916 64.333 490.666 73.083 490.666 83.833C490.667 88.958 488.583 93.99 484.958 97.625Z" fill="#DE4F22"/>
</svg>
