<svg width="279" height="279" viewBox="0 0 279 279" fill="none" xmlns="http://www.w3.org/2000/svg">
<path d="M224.508 13.5968H190.178V3.8623C190.178 2.85065 189.776 1.88043 189.061 1.16508C188.345 0.44973 187.375 0.0478516 186.363 0.0478516H92.6367C91.6251 0.0478516 90.6548 0.44973 89.9395 1.16508C89.2241 1.88043 88.8223 2.85065 88.8223 3.8623V13.5968H54.4922C50.5915 13.6014 46.8519 15.153 44.0937 17.9112C41.3355 20.6694 39.7839 24.409 39.7793 28.3097V264.217C39.7839 268.118 41.3355 271.858 44.0937 274.616C46.8519 277.374 50.5915 278.926 54.4922 278.93H224.508C228.408 278.926 232.148 277.374 234.906 274.616C237.664 271.858 239.216 268.118 239.221 264.217V28.3097C239.216 24.409 237.664 20.6694 234.906 17.9112C232.148 15.153 228.408 13.6014 224.508 13.5968ZM209.795 43.0226V249.504H69.2051V43.0226H209.795ZM96.4512 7.67676H182.549V35.3937H96.4512V7.67676ZM231.592 264.226C231.589 266.104 230.842 267.905 229.514 269.233C228.186 270.561 226.386 271.308 224.508 271.31H54.4922C52.6141 271.308 50.8136 270.561 49.4856 269.233C48.1576 267.905 47.4105 266.104 47.4082 264.226V28.3097C47.4105 26.4316 48.1576 24.6311 49.4856 23.3031C50.8136 21.9751 52.6141 21.228 54.4922 21.2257H88.8223V35.3937H65.3906C64.8896 35.3934 64.3935 35.4918 63.9306 35.6834C63.4676 35.875 63.047 36.156 62.6928 36.5103C62.3385 36.8645 62.0575 37.2851 61.8659 37.7481C61.6744 38.211 61.5759 38.7071 61.5762 39.2081V253.319C61.5759 253.82 61.6744 254.316 61.8659 254.779C62.0575 255.242 62.3385 255.662 62.6928 256.017C63.047 256.371 63.4676 256.652 63.9306 256.844C64.3935 257.035 64.8896 257.134 65.3906 257.133H213.609C214.11 257.134 214.607 257.035 215.069 256.844C215.532 256.652 215.953 256.371 216.307 256.017C216.661 255.662 216.942 255.242 217.134 254.779C217.326 254.316 217.424 253.82 217.424 253.319V39.2081C217.424 38.7071 217.326 38.211 217.134 37.7481C216.942 37.2851 216.661 36.8645 216.307 36.5103C215.953 36.156 215.532 35.875 215.069 35.6834C214.607 35.4918 214.11 35.3934 213.609 35.3937H190.178V21.2257H224.508C226.386 21.228 228.186 21.9751 229.514 23.3031C230.842 24.6311 231.589 26.4316 231.592 28.3097V264.226Z" fill="#DE4F22"/>
<path d="M113.479 25.3516H165.519C166.531 25.3516 167.501 24.9497 168.216 24.2343C168.932 23.519 169.333 22.5488 169.333 21.5371C169.333 20.5255 168.932 19.5552 168.216 18.8399C167.501 18.1245 166.531 17.7227 165.519 17.7227H113.479C112.467 17.7227 111.497 18.1245 110.782 18.8399C110.066 19.5552 109.665 20.5255 109.665 21.5371C109.665 22.5488 110.066 23.519 110.782 24.2343C111.497 24.9497 112.467 25.3516 113.479 25.3516Z" fill="#DE4F22"/>
<path d="M92.6367 138.323H111.981C112.482 138.324 112.979 138.225 113.442 138.033C113.904 137.842 114.325 137.561 114.679 137.207C115.034 136.852 115.315 136.432 115.506 135.969C115.698 135.506 115.796 135.01 115.796 134.509V115.164C115.796 114.663 115.698 114.167 115.506 113.704C115.315 113.241 115.034 112.82 114.679 112.466C114.325 112.112 113.904 111.831 113.442 111.639C112.979 111.448 112.482 111.349 111.981 111.35H92.6367C92.1357 111.349 91.6396 111.448 91.1766 111.639C90.7137 111.831 90.2931 112.112 89.9389 112.466C89.5846 112.82 89.3036 113.241 89.112 113.704C88.9204 114.167 88.822 114.663 88.8223 115.164V134.509C88.822 135.01 88.9204 135.506 89.112 135.969C89.3036 136.432 89.5846 136.852 89.9389 137.207C90.2931 137.561 90.7137 137.842 91.1766 138.033C91.6396 138.225 92.1357 138.324 92.6367 138.323ZM96.4512 118.979H108.167V130.694H96.4512V118.979Z" fill="#DE4F22"/>
<path d="M92.6367 181.178H111.981C112.482 181.178 112.979 181.08 113.442 180.888C113.904 180.696 114.325 180.415 114.679 180.061C115.034 179.707 115.315 179.286 115.506 178.823C115.698 178.36 115.796 177.864 115.796 177.363V158.027C115.796 157.526 115.698 157.03 115.506 156.567C115.315 156.104 115.034 155.684 114.679 155.329C114.325 154.975 113.904 154.694 113.442 154.503C112.979 154.311 112.482 154.213 111.981 154.213H92.6367C92.1357 154.213 91.6396 154.311 91.1766 154.503C90.7137 154.694 90.2931 154.975 89.9389 155.329C89.5846 155.684 89.3036 156.104 89.112 156.567C88.9204 157.03 88.822 157.526 88.8223 158.027V177.372C88.824 178.382 89.2267 179.351 89.9419 180.064C90.6572 180.778 91.6264 181.178 92.6367 181.178ZM96.4512 161.833H108.167V173.549H96.4512V161.833Z" fill="#DE4F22"/>
<path d="M92.6367 224.03H111.981C112.482 224.031 112.979 223.932 113.442 223.741C113.904 223.549 114.325 223.268 114.679 222.914C115.034 222.559 115.315 222.139 115.506 221.676C115.698 221.213 115.796 220.717 115.796 220.216V200.871C115.796 200.37 115.698 199.874 115.506 199.411C115.315 198.948 115.034 198.527 114.679 198.173C114.325 197.819 113.904 197.538 113.442 197.346C112.979 197.155 112.482 197.056 111.981 197.057H92.6367C92.1357 197.056 91.6396 197.155 91.1766 197.346C90.7137 197.538 90.2931 197.819 89.9389 198.173C89.5846 198.527 89.3036 198.948 89.112 199.411C88.9204 199.874 88.822 200.37 88.8223 200.871V220.216C88.822 220.717 88.9204 221.213 89.112 221.676C89.3036 222.139 89.5846 222.559 89.9389 222.914C90.2931 223.268 90.7137 223.549 91.1766 223.741C91.6396 223.932 92.1357 224.031 92.6367 224.03ZM96.4512 204.686H108.167V216.401H96.4512V204.686Z" fill="#DE4F22"/>
<path d="M135.141 85.7969H186.363C187.375 85.7969 188.345 85.395 189.061 84.6797C189.776 83.9643 190.178 82.9941 190.178 81.9824C190.178 80.9708 189.776 80.0005 189.061 79.2852C188.345 78.5698 187.375 78.168 186.363 78.168H135.141C134.129 78.168 133.159 78.5698 132.443 79.2852C131.728 80.0005 131.326 80.9708 131.326 81.9824C131.326 82.9941 131.728 83.9643 132.443 84.6797C133.159 85.395 134.129 85.7969 135.141 85.7969Z" fill="#DE4F22"/>
<path d="M135.141 128.649H186.363C187.375 128.649 188.345 128.248 189.061 127.532C189.776 126.817 190.178 125.847 190.178 124.835C190.178 123.823 189.776 122.853 189.061 122.138C188.345 121.422 187.375 121.021 186.363 121.021H135.141C134.129 121.021 133.159 121.422 132.443 122.138C131.728 122.853 131.326 123.823 131.326 124.835C131.326 125.847 131.728 126.817 132.443 127.532C133.159 128.248 134.129 128.649 135.141 128.649Z" fill="#DE4F22"/>
<path d="M135.141 171.507H186.363C187.375 171.507 188.345 171.105 189.061 170.39C189.776 169.674 190.178 168.704 190.178 167.692C190.178 166.681 189.776 165.711 189.061 164.995C188.345 164.28 187.375 163.878 186.363 163.878H135.141C134.129 163.878 133.159 164.28 132.443 164.995C131.728 165.711 131.326 166.681 131.326 167.692C131.326 168.704 131.728 169.674 132.443 170.39C133.159 171.105 134.129 171.507 135.141 171.507Z" fill="#DE4F22"/>
<path d="M135.141 214.359H186.363C187.375 214.359 188.345 213.958 189.061 213.242C189.776 212.527 190.178 211.557 190.178 210.545C190.178 209.533 189.776 208.563 189.061 207.848C188.345 207.132 187.375 206.73 186.363 206.73H135.141C134.129 206.73 133.159 207.132 132.443 207.848C131.728 208.563 131.326 209.533 131.326 210.545C131.326 211.557 131.728 212.527 132.443 213.242C133.159 213.958 134.129 214.359 135.141 214.359Z" fill="#DE4F22"/>
<path d="M97.432 94.3519C97.8432 94.7529 98.3388 95.0569 98.8827 95.2417C99.4266 95.4265 100.005 95.4874 100.575 95.4199C101.146 95.3524 101.694 95.1583 102.179 94.8517C102.665 94.5451 103.076 94.1338 103.383 93.6479L115.236 74.3032C115.508 73.8759 115.693 73.3986 115.779 72.8992C115.865 72.3997 115.851 71.8881 115.737 71.3942C115.623 70.9003 115.412 70.434 115.116 70.0227C114.82 69.6113 114.445 69.2631 114.013 68.9983C113.581 68.7336 113.1 68.5576 112.599 68.4807C112.098 68.4038 111.587 68.4275 111.095 68.5504C110.603 68.6733 110.141 68.893 109.735 69.1966C109.329 69.5002 108.988 69.8817 108.731 70.3187L99.3937 85.5351L95.3242 81.4678C94.6046 80.7731 93.641 80.3888 92.6409 80.3977C91.6408 80.4066 90.6841 80.8079 89.977 81.5153C89.2699 82.2227 88.869 83.1795 88.8605 84.1796C88.852 85.1798 89.2367 86.1432 89.9316 86.8625L97.432 94.3519Z" fill="#DE4F22"/>
</svg>
