<svg width="285" height="285" viewBox="0 0 285 285" fill="none" xmlns="http://www.w3.org/2000/svg">
<path d="M282.375 50.6551L233.346 1.62622C232.22 0.49466 230.65 -0.0877627 229.064 0.0120811C227.472 0.117472 226.002 0.899582 225.031 2.16427L213.516 17.1242C196.515 14.0956 179.835 19.8089 166.179 33.4431L155.219 43.9545C154.731 43.6771 141.496 35.3679 139.077 34.0699C111.188 19.11 103.19 16.8413 77.9624 16.7082C75.5717 16.6971 72.7483 16.9855 70.5906 17.2629L58.9699 2.16427C57.9992 0.899582 56.5292 0.117472 54.9373 0.0120811C53.3453 -0.0933096 51.7811 0.49466 50.6551 1.62622L1.62622 50.6551C0.49466 51.7811 -0.0933096 53.3398 0.0120811 54.9317C0.117472 56.5237 0.899582 57.9992 2.16427 58.9699L17.1242 70.4852C14.0956 87.4864 19.8089 104.166 33.4431 117.822L71.1003 157.083C71.8991 162.397 75.4546 184.734 76.1535 188.523C76.8025 191.99 77.568 195.895 78.3557 198.535C82.8597 213.434 86.1768 223.074 90.8028 231.311C95.2459 239.205 100.515 245.151 109.296 254.026C111.071 255.806 113.107 257.448 114.682 258.68L114.898 258.846L112.441 277.739C112.236 279.32 112.719 280.917 113.772 282.115C114.826 283.313 116.346 284.001 117.938 284.001H187.279C188.871 284.001 190.391 283.313 191.445 282.115C192.499 280.917 192.981 279.32 192.776 277.739L190.341 259.018C193.969 256.483 197.219 253.516 200.004 250.199C201.967 247.858 201.662 244.352 199.316 242.383C198.317 241.545 197.053 241.085 195.755 241.085C194.107 241.085 192.56 241.806 191.506 243.065C189.038 246 186.114 248.573 182.797 250.72C182.796 250.721 182.795 250.721 182.794 250.722L122.637 250.792C122.049 250.354 118.022 247.07 117.184 246.221C109.103 238.056 104.299 232.665 100.472 225.87C96.8883 219.524 93.7765 211.243 88.9785 195.329C88.5181 193.842 87.8081 190.547 87.0648 186.504C85.2343 176.603 80.4307 144.408 80.4307 144.336C80.4307 143.593 81.0243 142.955 81.7564 142.922C82.0726 142.9 82.3832 142.889 82.705 142.889C89.0839 142.889 94.6308 147.437 95.8954 153.705L103.284 190.07C103.805 192.644 106.091 194.513 108.714 194.513C108.897 194.513 109.086 194.502 109.275 194.486C110.645 194.347 111.904 193.709 112.83 192.688C113.756 191.662 114.267 190.342 114.267 188.967V73.0362C114.267 71.1669 114.999 69.403 116.319 68.0662C117.667 66.7238 119.381 66.0138 121.267 66.0138C125.118 66.0194 128.259 69.1628 128.272 73.0229C128.272 73.0273 128.271 173.087 128.271 173.087C128.271 176.15 130.755 178.634 133.818 178.634C136.882 178.634 139.365 176.15 139.365 173.087L139.366 59.7187C139.366 57.8217 140.076 56.1021 141.419 54.7487C142.767 53.4119 145.257 52.7407 147.143 52.7407C148.724 52.9182 150.155 53.6393 151.32 54.8541C151.808 55.3699 152.218 55.9413 152.535 56.557C153.084 57.6109 153.372 58.7868 153.372 60.0016L153.371 173.087C153.371 176.15 155.717 178.634 158.78 178.634C161.843 178.634 164.189 176.15 164.189 173.087V73.0578C164.189 73.0506 164.328 73.0434 164.328 73.0362C164.328 71.1669 165.129 69.3974 166.449 68.0662C167.797 66.7238 169.545 66.0138 171.431 66.0138C175.286 66.0194 178.449 69.17 178.454 73.0362L177.029 172.979C176.97 176.041 179.408 178.573 182.471 178.632C182.508 178.633 182.547 178.633 182.583 178.633C185.596 178.633 188.138 176.22 188.197 173.194L189.704 99.4782V99.3728C189.704 97.5035 190.367 95.7396 191.687 94.4028C193.041 93.0604 194.714 92.3504 196.606 92.3504C200.433 92.356 203.561 95.49 203.589 99.3284L201.5 199.122C201.466 200.603 202.011 202.006 203.032 203.077C204.058 204.147 205.437 204.752 206.918 204.785C208.416 204.813 209.84 204.247 210.911 203.204C211.959 202.178 212.552 200.814 212.58 199.355L213.073 175.714C213.112 175.686 220.691 169.333 223.764 166.683C235.206 156.812 245.466 147.063 249.887 139.166C265.646 110.982 267.16 102.962 267.293 77.9618C267.305 75.5822 267.016 72.7478 266.739 70.59L281.837 58.9693C283.102 57.9986 283.884 56.5287 283.99 54.9367C284.094 53.3392 283.506 51.7806 282.375 50.6551ZM125.693 261.881L179.52 261.818L180.962 272.906H124.257L125.693 261.881ZM13.9359 54.0326L54.0337 13.9342L60.812 22.7476L22.7942 60.8547L13.9359 54.0326ZM133.57 46.9165C130.957 49.5235 129.227 52.815 128.567 56.4483C126.265 55.4332 123.807 54.914 121.267 54.914H121.261C118.826 54.914 116.458 55.3943 114.217 56.3429C112.053 57.2636 110.118 58.5688 108.47 60.2273C106.812 61.8803 105.508 63.8223 104.593 65.9856C103.65 68.2265 103.173 70.6011 103.173 73.0362V142.799C100.954 139.477 97.9589 136.709 94.4532 134.795C90.8644 132.832 86.7986 131.794 82.6994 131.794C82.1225 131.794 81.5457 131.816 80.9799 131.855C77.7793 132.083 74.8284 133.503 72.6651 135.844C71.5335 137.069 70.6682 138.489 70.108 140.02L41.4084 110.1C41.3807 110.073 41.353 110.045 41.3252 110.017C29.9602 98.6523 25.3785 84.8583 28.3228 71.0199L70.8202 28.4226C72.8282 28.1398 75.7941 27.7964 77.9064 27.8019C100.205 27.9184 106.373 29.1166 133.835 43.8435C134.362 44.1264 135.016 44.5147 135.81 45.0028C135.012 45.5742 134.269 46.212 133.57 46.9165ZM240.202 133.752C236.065 141.146 223.252 152.59 213.384 160.976L214.665 99.4893V99.3728C214.665 94.5359 212.779 89.851 209.368 86.4286C205.951 83.0062 201.408 80.9838 196.571 80.9838H196.56C194.142 80.9838 191.924 81.7276 189.705 82.665V73.0356C189.705 68.1988 187.75 63.647 184.338 60.2246C180.921 56.8033 176.303 54.914 171.466 54.914H171.461C168.915 54.914 166.446 55.4387 164.128 56.4704C163.834 54.9617 163.362 53.5101 162.719 52.1344L173.901 41.4073L173.984 41.3247C185.349 29.9597 199.143 25.3785 212.982 28.3228L255.579 70.8202C255.862 72.8282 256.206 75.7941 256.2 77.9069C256.083 100.155 255.473 106.445 240.202 133.752ZM261.253 60.8109L223.146 22.7931L229.968 13.9347L270.066 54.0331L261.253 60.8109Z" fill="#DE4422"/>
<path d="M205.882 229.69C208.945 229.69 211.429 227.207 211.429 224.144C211.429 221.08 208.945 218.597 205.882 218.597C202.818 218.597 200.335 221.08 200.335 224.144C200.335 227.207 202.818 229.69 205.882 229.69Z" fill="#DE4422"/>
</svg>
