<svg width="250" height="250" viewBox="0 0 250 250" fill="none" xmlns="http://www.w3.org/2000/svg">
<path d="M49.9673 74.9512V117.676H14.6484V74.9512H0V175.049H14.6484V132.324H49.9673V175.049H64.6157V74.9512H49.9673Z" fill="black"/>
<path d="M198.73 103.027C186.615 103.027 176.758 112.884 176.758 125C176.758 137.116 186.615 146.973 198.73 146.973C210.846 146.973 220.703 137.116 220.703 125C220.703 112.884 210.846 103.027 198.73 103.027ZM198.73 132.324C194.692 132.324 191.406 129.039 191.406 125C191.406 120.961 194.692 117.676 198.73 117.676C202.769 117.676 206.055 120.961 206.055 125C206.055 129.039 202.769 132.324 198.73 132.324Z" fill="black"/>
<path d="M198.73 73.7305C177.062 73.7305 158.489 87.2437 150.998 106.286C151.078 105.413 151.128 104.531 151.128 103.638C151.128 87.8198 138.259 74.9512 122.441 74.9512H79.2642V175.049H122.441C138.259 175.049 151.128 162.18 151.128 146.362C151.128 145.469 151.078 144.587 150.998 143.714C158.489 162.756 177.062 176.27 198.73 176.27C227 176.27 250 153.27 250 125C250 96.73 227 73.7305 198.73 73.7305ZM122.441 160.4H93.9126V132.324H122.441C130.182 132.324 136.479 138.622 136.479 146.362C136.479 154.103 130.182 160.4 122.441 160.4ZM122.441 117.676H93.9126V89.5996H122.441C130.182 89.5996 136.479 95.897 136.479 103.638C136.479 111.378 130.182 117.676 122.441 117.676ZM148.22 133.805C146.582 130.455 144.317 127.464 141.568 125C144.317 122.536 146.582 119.545 148.22 116.195C147.723 119.057 147.461 121.999 147.461 125C147.461 128.001 147.723 130.943 148.22 133.805ZM198.73 161.621C178.538 161.621 162.109 145.193 162.109 125C162.109 104.807 178.538 88.3789 198.73 88.3789C218.923 88.3789 235.352 104.807 235.352 125C235.352 145.193 218.923 161.621 198.73 161.621Z" fill="black"/>
</svg>
