<svg width="500" height="500" viewBox="0 0 500 500" fill="none" xmlns="http://www.w3.org/2000/svg">
<path d="M250 472.182C242.881 472.182 236.019 469.604 230.67 464.919C210.472 447.257 190.998 430.66 173.816 416.019L173.729 415.942C123.356 373.016 79.8567 335.945 49.591 299.427C15.7585 258.602 0 219.894 0 177.608C0 136.524 14.0877 98.6212 39.6651 70.877C65.5478 42.8047 101.063 27.3438 139.679 27.3438C168.541 27.3438 194.973 36.4685 218.238 54.4624C229.98 63.5452 240.623 74.6612 250 87.6273C259.38 74.6612 270.019 63.5452 281.764 54.4624C305.03 36.4685 331.462 27.3438 360.324 27.3438C398.936 27.3438 434.455 42.8047 460.338 70.877C485.915 98.6212 499.999 136.524 499.999 177.608C499.999 219.894 484.244 258.602 450.412 299.423C420.146 335.945 376.651 373.012 326.286 415.935C309.074 430.598 289.569 447.223 269.325 464.927C263.98 469.604 257.114 472.182 250 472.182V472.182ZM139.679 56.6329C109.34 56.6329 81.4703 68.7408 61.1953 90.7286C40.6188 113.048 29.2854 143.902 29.2854 177.608C29.2854 213.173 42.5033 244.979 72.1396 280.738C100.784 315.303 143.39 351.611 192.722 393.653L192.814 393.729C210.06 408.427 229.61 425.09 249.958 442.882C270.427 425.056 290.008 408.366 307.289 393.646C356.616 351.604 399.219 315.303 427.863 280.738C457.496 244.979 470.714 213.173 470.714 177.608C470.714 143.902 459.38 113.048 438.804 90.7286C418.533 68.7408 390.659 56.6329 360.324 56.6329C338.1 56.6329 317.695 63.6977 299.678 77.629C283.622 90.0496 272.438 105.751 265.88 116.737C262.508 122.387 256.572 125.759 250 125.759C243.427 125.759 237.491 122.387 234.119 116.737C227.565 105.751 216.381 90.0496 200.321 77.629C182.304 63.6977 161.899 56.6329 139.679 56.6329V56.6329Z" fill="#DE4F22"/>
</svg>
