<svg width="618" height="618" viewBox="0 0 618 618" fill="none" xmlns="http://www.w3.org/2000/svg">
<g clip-path="url(#clip0)">
<path d="M435.687 0.000433858H396.119C391.169 -0.0807105 386.873 3.39328 385.915 8.24673C378.835 44.9747 346.661 71.4836 309.259 71.4075H309C271.44 71.6864 239.059 45.066 232.06 8.16559C231.071 3.34764 226.791 -0.0807105 221.871 0.000433858H181.319C163.894 -0.0350669 147.168 6.85713 134.834 19.1657C122.495 31.4692 115.562 48.1799 115.552 65.6006L116.444 552.781C116.602 588.946 146.042 618.143 182.212 617.996H213.113C218.423 618.128 222.936 614.131 223.453 608.842C227.191 568.944 260.673 538.439 300.749 538.419C340.824 538.404 374.331 568.873 378.11 608.771C378.617 614.076 383.125 618.097 388.45 617.996H435.687C471.948 617.996 501.951 589.063 501.951 552.796V65.1999C501.951 28.9385 471.948 0.000433858 435.687 0.000433858ZM481.178 552.796C481.178 577.606 460.491 597.223 435.687 597.223H397.473C389.358 555.677 353.827 521.673 309.766 517.636C258.903 512.98 213.422 549.186 204.09 597.223H182.212C157.468 597.319 137.324 577.343 137.217 552.599L136.325 65.3419C136.355 53.4594 141.117 42.0738 149.561 33.7108C158.005 25.3479 169.432 20.6922 181.319 20.7734H213.716C226.091 63.0851 264.878 92.1652 308.959 92.1804H309.294C353.3 92.0891 391.985 63.0192 404.314 20.7734H435.682C460.491 20.7734 481.178 40.39 481.178 65.1999V552.796Z" fill="black"/>
<path d="M400.942 447.917H215.953C210.217 447.917 205.566 452.568 205.566 458.303C205.566 464.039 210.217 468.69 215.953 468.69H400.942C406.678 468.69 411.328 464.039 411.328 458.303C411.328 452.568 406.678 447.917 400.942 447.917Z" fill="black"/>
<path d="M216.5 227.545C231.208 227.545 243.131 215.621 243.131 200.919C243.131 186.211 231.208 174.288 216.5 174.288C201.793 174.288 189.87 186.211 189.87 200.919C189.89 215.616 201.798 227.529 216.5 227.545ZM216.5 195.061C219.736 195.061 222.358 197.683 222.358 200.919C222.358 204.149 219.736 206.771 216.5 206.771C213.265 206.771 210.643 204.149 210.643 200.919C210.648 197.683 213.27 195.066 216.5 195.061Z" fill="black"/>
<path d="M327.41 227.545C342.117 227.545 354.041 215.621 354.041 200.919C354.041 186.211 342.117 174.288 327.41 174.288C312.702 174.288 300.784 186.211 300.784 200.919C300.799 215.616 312.712 227.529 327.41 227.545ZM327.41 195.061C330.646 195.061 333.268 197.683 333.268 200.919C333.268 204.149 330.646 206.771 327.41 206.771C324.179 206.771 321.557 204.149 321.557 200.919C321.557 197.683 324.179 195.066 327.41 195.061Z" fill="black"/>
<path d="M448.533 211.624H416.511C410.623 211.863 405.947 216.665 405.876 222.553V232.351L366.927 254.184V243.321C378.855 232.458 385.615 217.046 385.529 200.918C385.595 172.259 364.822 147.809 336.533 143.24C308.244 138.675 280.833 155.351 271.882 182.574C262.854 155.34 235.407 138.68 207.088 143.24C178.763 147.794 157.935 172.229 157.909 200.918C157.909 217.603 165.689 232.666 176.075 243.321V341.557C176.222 347.328 180.985 351.913 186.761 351.842H230.604V368.065C230.604 373.801 235.356 377.808 241.092 377.808H246.184V413.187C246.144 415.885 247.198 418.481 249.115 420.378C251.032 422.275 253.639 423.315 256.332 423.249H287.578C290.311 423.33 292.969 422.31 294.947 420.419C296.925 418.527 298.066 415.92 298.117 413.187V377.808H302.818C308.554 377.808 313.696 373.801 313.696 368.065V351.842H357.149C362.885 351.842 366.927 347.292 366.927 341.557V321.823L405.876 343.661V353.459C405.947 356.203 407.109 358.81 409.102 360.702C411.1 362.588 413.762 363.608 416.511 363.526H448.533C451.271 363.608 453.934 362.583 455.917 360.691C457.905 358.8 459.051 356.198 459.107 353.454V222.553C459.061 216.675 454.406 211.868 448.533 211.624ZM327.41 163.267C348.203 163.267 365.061 180.125 365.061 200.918C365.061 221.711 348.203 238.569 327.41 238.569C306.616 238.569 289.759 221.711 289.759 200.918C289.779 180.135 306.627 163.287 327.41 163.267ZM273.783 224.607H270.127C270.634 222.969 271.248 221.367 271.958 219.805C272.668 221.367 273.276 222.969 273.783 224.607ZM216.5 163.267C237.294 163.267 254.151 180.125 254.151 200.918C254.151 221.711 237.294 238.569 216.5 238.569C195.707 238.569 178.849 221.711 178.849 200.918C178.87 180.135 195.717 163.287 216.5 163.267ZM277.344 402.476H266.957V377.808H277.344V402.476ZM292.923 357.035H251.377V351.842H292.923V357.035ZM346.154 331.069H196.848V256.025C203.112 258.272 209.7 259.479 216.348 259.606C230.523 259.748 244.262 254.686 254.958 245.38H288.957C299.476 254.676 313.067 259.748 327.105 259.611C333.622 259.601 340.078 258.389 346.154 256.025V331.069ZM366.927 297.962V278.051L405.876 256.218V319.79L366.927 297.962ZM438.334 342.753H426.649V232.397H438.334V342.753Z" fill="black"/>
</g>
<mask id="mask0" mask-type="alpha" maskUnits="userSpaceOnUse" x="0" y="0" width="618" height="618">
<g clip-path="url(#clip1)">
<path d="M435.687 0.000433858H396.119C391.169 -0.0807105 386.873 3.39328 385.915 8.24673C378.835 44.9747 346.661 71.4836 309.259 71.4075H309C271.44 71.6864 239.059 45.066 232.06 8.16559C231.071 3.34764 226.791 -0.0807105 221.871 0.000433858H181.319C163.894 -0.0350669 147.168 6.85713 134.834 19.1657C122.495 31.4692 115.562 48.1799 115.552 65.6006L116.444 552.781C116.602 588.946 146.042 618.143 182.212 617.996H213.113C218.423 618.128 222.936 614.131 223.453 608.842C227.191 568.944 260.673 538.439 300.749 538.419C340.824 538.404 374.331 568.873 378.11 608.771C378.617 614.076 383.125 618.097 388.45 617.996H435.687C471.948 617.996 501.951 589.063 501.951 552.796V65.1999C501.951 28.9385 471.948 0.000433858 435.687 0.000433858ZM481.178 552.796C481.178 577.606 460.491 597.223 435.687 597.223H397.473C389.358 555.677 353.827 521.673 309.766 517.636C258.903 512.98 213.422 549.186 204.09 597.223H182.212C157.468 597.319 137.324 577.343 137.217 552.599L136.325 65.3419C136.355 53.4594 141.117 42.0738 149.561 33.7108C158.005 25.3479 169.432 20.6922 181.319 20.7734H213.716C226.091 63.0851 264.878 92.1652 308.959 92.1804H309.294C353.3 92.0891 391.985 63.0192 404.314 20.7734H435.682C460.491 20.7734 481.178 40.39 481.178 65.1999V552.796Z" fill="black"/>
<path d="M400.942 447.917H215.953C210.217 447.917 205.566 452.568 205.566 458.303C205.566 464.039 210.217 468.69 215.953 468.69H400.942C406.678 468.69 411.328 464.039 411.328 458.303C411.328 452.568 406.678 447.917 400.942 447.917Z" fill="black"/>
<path d="M216.5 227.545C231.208 227.545 243.131 215.621 243.131 200.919C243.131 186.211 231.208 174.288 216.5 174.288C201.793 174.288 189.87 186.211 189.87 200.919C189.89 215.616 201.798 227.529 216.5 227.545ZM216.5 195.061C219.736 195.061 222.358 197.683 222.358 200.919C222.358 204.149 219.736 206.771 216.5 206.771C213.265 206.771 210.643 204.149 210.643 200.919C210.648 197.683 213.27 195.066 216.5 195.061Z" fill="black"/>
<path d="M327.41 227.545C342.117 227.545 354.041 215.621 354.041 200.919C354.041 186.211 342.117 174.288 327.41 174.288C312.702 174.288 300.784 186.211 300.784 200.919C300.799 215.616 312.712 227.529 327.41 227.545ZM327.41 195.061C330.646 195.061 333.268 197.683 333.268 200.919C333.268 204.149 330.646 206.771 327.41 206.771C324.179 206.771 321.557 204.149 321.557 200.919C321.557 197.683 324.179 195.066 327.41 195.061Z" fill="black"/>
<path d="M448.533 211.624H416.511C410.623 211.863 405.947 216.665 405.876 222.553V232.351L366.927 254.184V243.321C378.855 232.458 385.615 217.046 385.529 200.918C385.595 172.259 364.822 147.809 336.533 143.24C308.244 138.675 280.833 155.351 271.882 182.574C262.854 155.34 235.407 138.68 207.088 143.24C178.763 147.794 157.935 172.229 157.909 200.918C157.909 217.603 165.689 232.666 176.075 243.321V341.557C176.222 347.328 180.985 351.913 186.761 351.842H230.604V368.065C230.604 373.801 235.356 377.808 241.092 377.808H246.184V413.187C246.144 415.885 247.198 418.481 249.115 420.378C251.032 422.275 253.639 423.315 256.332 423.249H287.578C290.311 423.33 292.969 422.31 294.947 420.419C296.925 418.527 298.066 415.92 298.117 413.187V377.808H302.818C308.554 377.808 313.696 373.801 313.696 368.065V351.842H357.149C362.885 351.842 366.927 347.292 366.927 341.557V321.823L405.876 343.661V353.459C405.947 356.203 407.109 358.81 409.102 360.702C411.1 362.588 413.762 363.608 416.511 363.526H448.533C451.271 363.608 453.934 362.583 455.917 360.691C457.905 358.8 459.051 356.198 459.107 353.454V222.553C459.061 216.675 454.406 211.868 448.533 211.624ZM327.41 163.267C348.203 163.267 365.061 180.125 365.061 200.918C365.061 221.711 348.203 238.569 327.41 238.569C306.616 238.569 289.759 221.711 289.759 200.918C289.779 180.135 306.627 163.287 327.41 163.267ZM273.783 224.607H270.127C270.634 222.969 271.248 221.367 271.958 219.805C272.668 221.367 273.276 222.969 273.783 224.607ZM216.5 163.267C237.294 163.267 254.151 180.125 254.151 200.918C254.151 221.711 237.294 238.569 216.5 238.569C195.707 238.569 178.849 221.711 178.849 200.918C178.87 180.135 195.717 163.287 216.5 163.267ZM277.344 402.476H266.957V377.808H277.344V402.476ZM292.923 357.035H251.377V351.842H292.923V357.035ZM346.154 331.069H196.848V256.025C203.112 258.272 209.7 259.479 216.348 259.606C230.523 259.748 244.262 254.686 254.958 245.38H288.957C299.476 254.676 313.067 259.748 327.105 259.611C333.622 259.601 340.078 258.389 346.154 256.025V331.069ZM366.927 297.962V278.051L405.876 256.218V319.79L366.927 297.962ZM438.334 342.753H426.649V232.397H438.334V342.753Z" fill="black"/>
</g>
</mask>
<g mask="url(#mask0)">
<rect x="309" y="-62" width="274" height="756" fill="#DE4F22"/>
</g>
<defs>
<clipPath id="clip0">
<rect width="618" height="618" fill="white"/>
</clipPath>
<clipPath id="clip1">
<rect width="618" height="618" fill="white"/>
</clipPath>
</defs>
</svg>
