<svg width="325" height="325" viewBox="0 0 325 325" fill="none" xmlns="http://www.w3.org/2000/svg">
<path d="M292.195 136.551L62.7178 4.0615C53.3377 -1.35383 42.1375 -1.35383 32.7549 4.0615C32.678 4.10613 32.6086 4.15572 32.5317 4.20036C32.3978 4.2797 32.2639 4.36153 32.1325 4.44831C23.1342 9.9306 17.7734 19.4248 17.7734 30.01V294.99C17.7734 305.823 23.3747 315.523 32.7549 320.938C37.4462 323.646 42.5913 325 47.7364 325C52.8814 325 58.029 323.646 62.7178 320.938L292.198 188.448C301.578 183.033 307.179 173.333 307.179 162.5C307.179 151.667 301.578 141.967 292.195 136.551ZM37.0569 297.243C36.9181 296.547 36.8338 295.8 36.8338 294.99V30.01C36.8338 28.5842 37.0743 27.342 37.4586 26.2609L167.157 161.543L37.0569 297.243ZM64.875 27.3147L213.549 113.152L180.36 147.771L64.875 27.3147ZM60.7615 300.06L180.358 175.312L214.732 211.166L60.7615 300.06ZM282.667 171.942L231.727 201.352L193.561 161.543L230.544 122.966L282.667 153.058C287.586 155.899 288.119 160.608 288.119 162.5C288.119 164.392 287.586 169.1 282.667 171.942Z" fill="#3E363F"/>
</svg>
