<svg width="193" height="193" viewBox="0 0 193 193" fill="none" xmlns="http://www.w3.org/2000/svg">
<g clip-path="url(#clip0)">
<path d="M96.0418 132.979C106.201 132.979 114.896 129.362 122.13 122.131C129.362 114.9 132.979 106.201 132.979 96.0423V36.9404C132.979 26.7816 129.365 18.0863 122.13 10.8519C114.896 3.61904 106.201 0 96.0418 0C85.8833 0 77.1876 3.61904 69.9536 10.8519C62.7192 18.0851 59.1025 26.7816 59.1025 36.9404V96.0423C59.1025 106.201 62.7208 114.9 69.9536 122.131C77.1864 129.362 85.8833 132.979 96.0418 132.979Z" fill="#FFD162"/>
<path d="M160.337 76.0727C158.879 74.6103 157.143 73.8789 155.142 73.8789C153.143 73.8789 151.412 74.6103 149.948 76.0727C148.487 77.5347 147.756 79.266 147.756 81.2662V96.0428C147.756 110.28 142.695 122.458 132.575 132.578C122.458 142.698 110.279 147.758 96.041 147.758C81.8033 147.758 69.6253 142.698 59.5049 132.578C49.3856 122.461 44.3264 110.281 44.3264 96.0428V81.2662C44.3264 79.266 43.595 77.5347 42.1334 76.0727C40.671 74.6103 38.9413 73.8789 36.9391 73.8789C34.9369 73.8789 33.2052 74.6103 31.7436 76.0727C30.2808 77.5347 29.5498 79.266 29.5498 81.2662V96.0428C29.5498 113.05 35.2264 127.846 46.5764 140.427C57.9268 153.009 71.9522 160.223 88.6529 162.069V177.308H59.1017C57.1008 177.308 55.3695 178.04 53.9075 179.502C52.4451 180.964 51.7137 182.696 51.7137 184.697C51.7137 186.694 52.4451 188.43 53.9075 189.891C55.3695 191.352 57.1008 192.085 59.1017 192.085H132.978C134.979 192.085 136.712 191.352 138.172 189.891C139.636 188.43 140.368 186.695 140.368 184.697C140.368 182.696 139.636 180.964 138.172 179.502C136.713 178.04 134.979 177.308 132.978 177.308H103.431V162.069C120.129 160.223 134.153 153.009 145.504 140.427C156.856 127.846 162.534 113.05 162.534 96.0428V81.2662C162.534 79.2664 161.801 77.5364 160.337 76.0727Z" fill="#FFD162"/>
</g>
<mask id="mask0" mask-type="alpha" maskUnits="userSpaceOnUse" x="0" y="0" width="193" height="193">
<g clip-path="url(#clip1)">
<path d="M96.0418 132.979C106.201 132.979 114.896 129.362 122.13 122.131C129.362 114.9 132.979 106.201 132.979 96.0423V36.9404C132.979 26.7816 129.365 18.0863 122.13 10.8519C114.896 3.61904 106.201 0 96.0418 0C85.8833 0 77.1876 3.61904 69.9536 10.8519C62.7192 18.0851 59.1025 26.7816 59.1025 36.9404V96.0423C59.1025 106.201 62.7208 114.9 69.9536 122.131C77.1864 129.362 85.8833 132.979 96.0418 132.979Z" fill="black"/>
<path d="M160.337 76.0727C158.879 74.6103 157.143 73.8789 155.142 73.8789C153.143 73.8789 151.412 74.6103 149.948 76.0727C148.487 77.5347 147.756 79.266 147.756 81.2662V96.0428C147.756 110.28 142.695 122.458 132.575 132.578C122.458 142.698 110.279 147.758 96.041 147.758C81.8033 147.758 69.6253 142.698 59.5049 132.578C49.3856 122.461 44.3264 110.281 44.3264 96.0428V81.2662C44.3264 79.266 43.595 77.5347 42.1334 76.0727C40.671 74.6103 38.9413 73.8789 36.9391 73.8789C34.9369 73.8789 33.2052 74.6103 31.7436 76.0727C30.2808 77.5347 29.5498 79.266 29.5498 81.2662V96.0428C29.5498 113.05 35.2264 127.846 46.5764 140.427C57.9268 153.009 71.9522 160.223 88.6529 162.069V177.308H59.1017C57.1008 177.308 55.3695 178.04 53.9075 179.502C52.4451 180.964 51.7137 182.696 51.7137 184.697C51.7137 186.694 52.4451 188.43 53.9075 189.891C55.3695 191.352 57.1008 192.085 59.1017 192.085H132.978C134.979 192.085 136.712 191.352 138.172 189.891C139.636 188.43 140.368 186.695 140.368 184.697C140.368 182.696 139.636 180.964 138.172 179.502C136.713 178.04 134.979 177.308 132.978 177.308H103.431V162.069C120.129 160.223 134.153 153.009 145.504 140.427C156.856 127.846 162.534 113.05 162.534 96.0428V81.2662C162.534 79.2664 161.801 77.5364 160.337 76.0727Z" fill="black"/>
</g>
</mask>
<g mask="url(#mask0)">
<rect x="96.2275" y="213.885" width="235.313" height="109.974" transform="rotate(-90 96.2275 213.885)" fill="#DE4F22"/>
</g>
<defs>
<clipPath id="clip0">
<rect width="192.085" height="192.085" fill="white"/>
</clipPath>
<clipPath id="clip1">
<rect width="192.085" height="192.085" fill="white"/>
</clipPath>
</defs>
</svg>
